Data cleaning with Tidyverse • BasicR
…
flights_sml %>% 
  filter(month==3 & year==2013)
#> # A tibble: 0 × 19
#> # … with 19 variables: year <int>, month <int>, day <int>, dep_time <int>,
#> #   sched_dep_time <int>, dep_delay <dbl>, arr_time <int>,
#> #   sched_arr_time <int>, arr_delay <dbl>, carrier <chr>, flight <int>,
#> #   tailnum <chr>, origin <chr>, dest <chr>, air_time <dbl>, distance <dbl>,
#> #   hour <dbl>, minute <dbl>, time_hour <dttm>

flights_sml %>% 
  select(year:dep_time) %>% 
  mutate(date=paste(year, month, day))
#> # A tibble: 100 × 5
#>     year month   day dep_time date    
#>    <int> <int> <int>    <int> <chr>   
#>  1  2013     1     1      517 2013 1 1
#>  2  2013     1     1      533 2013 1 1
#>  3  2013     1     1      542 2013 1 1
#>  4  2013     1     1      544 2013 1 1
#>  5  2013     1     1      554 2013 1 1
#>  6  2013     1     1      554 2013 1 1
#>  7  2013     1     1      555 2013 1 1
#>  8  2013     1     1      557 2013 1 1
#>  9  2013     1     1      557 2013 1 1
#> 10  2013     1     1      558 2013 1 1
#> # … with 90 more rows

try(flights_sml %>% 
  select(year:dep_time) %>% 
  mutate(speed=distance/air_time *60))
#> Error in mutate(., speed = distance/air_time * 60) : 
#>   Problem while computing `speed = distance/air_time * 60`.
#> Caused by error:
#> ! object 'distance' not found

flights_sml %>% 
  select(distance, air_time) %>% 
  mutate(speed=distance/air_time *60)
#> # A tibble: 100 × 3
#>    distance air_time speed
#>       <dbl>    <dbl> <dbl>
#>  1     1400      227  370.
#>  2     1416      227  374.
#>  3     1089      160  408.
#>  4     1576      183  517.
#>  5      762      116  394.
#>  6      719      150  288.
#>  7     1065      158  404.
#>  8      229       53  259.
#>  9      944      140  405.
#> 10      733      138  319.
#> # … with 90 more rows
…
flights %>% 
  select(year:dest) %>%
  group_by(month, dest) %>% 
  summarise(mean_delay=mean(arr_delay, na.rm=T), sd=sd(arr_delay, na.rm=T), count=n())
#> `summarise()` has grouped output by 'month'. You can override using the
#> `.groups` argument.
#> # A tibble: 1,113 × 5
#> # Groups:   month [12]
#>    month dest  mean_delay    sd count
#>    <int> <chr>      <dbl> <dbl> <int>
#>  1     1 ALB        35.2   68.1    64
#>  2     1 ATL         4.15  34.2  1396
#>  3     1 AUS         8.72  48.6   169
#>  4     1 AVL        23.5   55.9     2
#>  5     1 BDL        11.0   51.2    37
#>  6     1 BHM        16.7   70.0    25
#>  7     1 BNA        12.7   47.0   399
#>  8     1 BOS        -2.54  28.6  1245
#>  9     1 BQN         2.65  30.0    93
#> 10     1 BTV         6.67  36.5   223
#> # … with 1,103 more rows
…
